{
	"id": "e9c1ed3c-3500-43bf-8ac3-e94a690ca6ba",
	"name": "reqres.in-Variables",
	"values": [
		{
			"key": "BaseURL",
			"value": "https://reqres.in",
			"enabled": true
		}
	],
	"_postman_variable_scope": "environment",
	"_postman_exported_at": "2020-10-07T12:54:48.801Z",
	"_postman_exported_using": "Postman/7.33.1"
}